Project 1: Wrangling, Exploration, Visualization
…
library(tidyverse)
library(knitr)
health <- read_csv("Sheet 2.csv")
pollution <- read_csv("Sheet 1.csv")
pollution <- pollution %>% rename(City = "Cities")

Tidying: Reshaping

If your datasets are tidy already, demonstrate that you can reshape data with pivot wider/longer here (e.g., untidy and then retidy). Alternatively, it may be easier to wait until the wrangling section so you can reshape your summary statistics. Note here if you are going to do this.

pollution %>% pivot_wider(names_from = City, values_from = AQI)

## # A tibble: 60 x 62
##    Population_Dens Average_Temp `Minneapolis, M `Phoenix, AZ` `Columbus, OH`
##               <dbl>        <dbl>            <dbl>         <dbl>          <dbl>
##  1            2594.         46.1             38.3          NA             NA  
##  2            3165.         75               NA            61.1           NA  
##  3            2605.         53               NA            NA             33.5
##  4            4005.         61.3             NA            NA             NA  
##  5            3028.         52.4             NA            NA             NA  
##  6            1414.         62.9             NA            NA             NA  
##  7            2221.         48.8             NA            NA             NA  
##  8            2031.         48.8             NA            NA             NA  
##  9            1707.         61.1             NA            NA             NA  
## 10            2098          60.6             NA            NA             NA  
## #  with 50 more rows, and 57 more variables: `Stockton, CA` <dbl>, `Seattle,
## #   WA` <dbl>, `Birmingham, AL` <dbl>, `Rochester, NY` <dbl>, `Grand Rapids,
## #   MI` <dbl>, `Atlanta, GA` <dbl>, `Oklahoma City, OK` <dbl>, `Orlando,
## #   FL` <dbl>, `Memphis, TN` <dbl>, `Miami, FL` <dbl>, `Austin, TX` <dbl>, `San
## #   Diego, CA` <dbl>, `New York, NY` <dbl>, `Fayetteville, NC` <dbl>, `Fresno,
## #   CA` <dbl>, `Houston, TX` <dbl>, `St. Louis, MO` <dbl>, `San Fransisco,
## #   CA` <dbl>, `Reno, NV` <dbl>, `Boise, ID` <dbl>, `Charlotte, NC` <dbl>,
## #   `Portland, OR` <dbl>, `Wilmington, NC` <dbl>, `Philadelphia, PA` <dbl>,
## #   `New Orleans, LA` <dbl>, `Omaha, NE` <dbl>, `Tulsa, OK` <dbl>, `Colorado
…
mean_total_health_score

44.00045

combined_data %>% filter(Average_Temp < 59) %>% summarize(mean_total_health_score = mean(Total_Health_Score)) %>% 
    kable()

mean_total_health_score

48.486

combined_data %>% arrange(desc(Total_Health_Score))

## # A tibble: 42 x 10
##    City  Population_Dens Average_Temp   AQI Total_Health_Sc Healthcare  Food
##    <chr>            <dbl>        <dbl> <dbl>            <dbl>      <dbl> <dbl>
##  1 Seat            3028.         52.4  44.7             65.7         14     6
##  2 Port            3528.         52.3  40.9             65.6         20     3
##  3 San             4037          62.1  68.8             62.9         26     4
##  4 Aust            2605.         68.7  39.6             59.1         19    13
##  5 Minn            2594.         46.1  38.3             57.7         24    24
##  6 Orla            2527.         71.8  31.9             55.6         33    17
##  7 Bois            2613.         51.8  48.7             55.3         52    47
##  8 Atla            1707.         61.1  43.2             55.2         43    14
##  9 New             5319.         53.4  43.7             54.4         98     2
## 10 Rich            1938.         58.6  32.2             53.0         25    67
## #  with 32 more rows, and 3 more variables: Fitness <dbl>, `Green
## #   Space` <dbl>, AQI_Category <chr>

combined_data

## # A tibble: 42 x 10
##    City  Population_Dens Average_Temp   AQI Total_Health_Sc Healthcare  Food
##    <chr>            <dbl>        <dbl> <dbl>            <dbl>      <dbl> <dbl>
##  1 Minn            2594.         46.1  38.3             57.7         24    24
##  2 Phoe            3165.         75    61.1             47.3        129    34
##  3 Colu            2605.         53    33.5             41.5         71    99
##  4 Stoc            4005.         61.3  52.3             37.1        134   121
##  5 Seat            3028.         52.4  44.7             65.7         14     6
##  6 Birm            1414.         62.9  46.9             36.6        123   151
##  7 Roch            2221.         48.8  30               50.1         82    38
##  8 Gran            2031.         48.8  33.6             48.8         49    70
##  9 Atla            1707.         61.1  43.2             55.2         43    14
## 10 Okla            2098          60.6  42.7             38.6         84   148
## #  with 32 more rows, and 3 more variables: Fitness <dbl>, `Green
## #   Space` <dbl>, AQI_Category <chr>
…
combined_data %>% summarize_all(function(x) sum(is.na(x)))

## # A tibble: 1 x 10
##    City Population_Dens Average_Temp   AQI Total_Health_Sc Healthcare  Food
##   <int>            <int>        <int> <int>            <int>      <int> <int>
## 1     0                0            0     0                0          0     0
## #  with 3 more variables: Fitness <int>, `Green Space` <int>,
## #   AQI_Category <int>

combined_data %>% pivot_wider(names_from = AQI_Category, values_from = Total_Health_Score)

## # A tibble: 42 x 10
##    City  Population_Dens Average_Temp   AQI Healthcare  Food Fitness
##    <chr>            <dbl>        <dbl> <dbl>      <dbl> <dbl>   <dbl>
##  1 Minn            2594.         46.1  38.3         24    24      64
##  2 Phoe            3165.         75    61.1        129    34      85
##  3 Colu            2605.         53    33.5         71    99     148
##  4 Stoc            4005.         61.3  52.3        134   121     165
##  5 Seat            3028.         52.4  44.7         14     6      25
##  6 Birm            1414.         62.9  46.9        123   151     151
##  7 Roch            2221.         48.8  30           82    38      68
##  8 Gran            2031.         48.8  33.6         49    70      69
##  9 Atla            1707.         61.1  43.2         43    14      23
## 10 Okla            2098          60.6  42.7         84   148     134
## #  with 32 more rows, and 3 more variables: `Green Space` <dbl>, Good <dbl>,
## #   Moderate <dbl>
…
